Commandes et objets de base, et importation
…
Les objets qui ne contiennent qu’un seul type de données : vecteurs et matrices.

Les objets pouvant contenir des données mixtes : tableaux et listes.

La flexibilité a un coût : on ne peut plus faire certaines opérations !

Les objets ayant des “dimensions” : vecteurs, tableaux et matrices

Les objets pour qui cela ne signifie rien ou presque : listes et fonctions

Les tableaux

data("fruveg", package = "intro2r")
fruveg
#> # A tibble: 33 × 19
#>    name          group energy water proteins carbohydrates lipids sugar fibers alcohol calcium copper  iron magnesium
#>    <chr>         <chr>  <dbl> <dbl>    <dbl>         <dbl>  <dbl> <dbl>  <dbl>   <dbl>   <dbl>  <dbl> <dbl>     <dbl>
#>  1 Mushroom      raw …   25.8  92.6     2.37          1.88   0.23  1.43   1.72       0    7.78  0.32   0.69      10.9
#>  2 Zucchini      raw …   20.1  94.7     1.23          1.8    0.26  1.79   1.05       0   18.7   0.052  0.36      17.5
#>  3 Leek          raw …   33.4  87.6     1.49          4.9    0.25  3.15   2.27       0   50.7   0.087  1.5       19  
#>  4 Tomato        raw …   21    94.1     0.86          2.49   0.26  2.48   1.2        0    8.14  0.029  0.12      10.1
#>  5 Broccoli      raw …   35.2  88.9     3.95          1.7    0.48  1.7    2.9        0   45.9   0.059  0.76      21.9
#>  6 Green bean    raw …   31.8  90.4     1.85          4.14   0.21  3.26   2.85       0   48.5   0.063  1.02      21  
#>  7 Red beet      raw …   50.9  86.7     1.74          9.1    0.24  6.76   2.55       0   22.1   0.098  0.7       19  
#>  8 White cabbage raw …   35.1  90       1.38          4.63   0.6   4.2    3.5        0   59     0.02   0.3       11  
#>  9 Squash        raw …   17.9  92.3     1.1           1.6    0.17  1.6    1.3        0   28.5   0.061  0.6       16.5
#> 10 Pumpkin       raw …   33.8  91.6     1             6      0.1   2.76   0.5        0   21     0.13   0.8       12  
#> # ℹ 23 more rows
#> # ℹ 5 more variables: manganese <dbl>, phosphorus <dbl>, potassium <dbl>, zinc <dbl>, vitaminC <dbl>
…
